,id_101,id_102,id_103
2023-03-01,22.24,24.78,22.54
2023-03-02,20.21,24.64,21.4
2023-03-03,24.04,25.51,21.94
2023-03-04,23.19,24.5,21.6
2023-03-05,24.25,25.28,22.88
2023-03-06,22.91,25.91,23.42
2023-03-07,23.34,25.5,23.52
2023-03-08,23.87,25.26,22.92
2023-03-09,20.73,24.63,22.34
2023-03-10,24.4,24.84,23.83
2023-03-11,22.65,24.24,22.08
2023-03-12,23.42,24.89,23.9
2023-03-13,24.78,24.89,22.49
2023-03-14,23.48,24.73,23.85
2023-03-15,21.13,24.39,23.02
2023-03-16,23.73,25.84,22.93
2023-03-17,22.93,25.63,22.89
2023-03-18,21.36,25.45,24.06
2023-03-19,22.42,24.34,24.4
2023-03-20,21.52,25.8,23.36
2023-03-21,22.14,24.84,24.52
2023-03-22,23.51,25.62,23.98
2023-03-23,24.05,24.52,23.68
2023-03-24,24.35,24.17,23.34
2023-03-25,21.25,25.84,25.13
2023-03-26,21.23,25.42,23.56
2023-03-27,21.94,25.06,24.43
2023-03-28,21.32,25.18,24.92
2023-03-29,23.21,24.24,25.68
2023-03-30,21.38,25.33,24.53
2023-03-31,21.74,24.94,24.5
